HW4_2026.knit
…
mono_socio

## # A tibble: 30 × 7
##    ParticipantID                age country1 country2 education handedness sex  
##    <fct>                      <dbl> <fct>    <fct>    <fct>     <fct>      <fct>
##  1 2bc93481d25426f259a0f1a3d…    58 Nicosia  Kaimakl… College   right      fema…
##  2 4b4c9debd4aedeb1fd3dfc9f1…    24 Nicosia  Nicosia  Universi… right      male 
##  3 5cfee92572d81db494f803686…    33 Nicosia  Nicosia  Postgrad… right      fema…
##  4 6a0bfef2c1607be61fa9879d3…    36 Paphos   Nicosia  Postgrad… right      male 
##  5 9c334b8c45452362a37cb790b…    23 Limassol Limassol Postgrad… right      fema…
##  6 9eed449d848443290afdb9aca…    27 Limasso… Limassol Universi… right      fema…
##  7 21dd0d72f74143f083e088410…    46 Nicosia  Moscow   Postgrad… right      male 
##  8 25c1b946d47b93d059a223201…    34 Limassol Limassol Universi… right      male 
##  9 79b886b6ef0a5213abc3cc590…    32 Nicosia  Nicosia  Postgrad… right      fema…
## 10 85b0e3c5d7dcaf0e1faa81dfe…    24 Nicosia  Nicosia  Universi… right      male 
## # ℹ 20 more rows
…
diff_data <- rt_by_participant %>%
  pivot_wider(
    id_cols = ParticipantID,
    names_from = WordOrder,
    values_from = mean_RT_log) %>%
  mutate(
    diff = Congruent - Incongruent  # отрицательное = конгруэнтный быстрее
  ) %>%
  filter(!is.na(Congruent), !is.na(Incongruent))  # только полные пары

diff_data

## # A tibble: 140 × 4
##    ParticipantID                    Congruent Incongruent     diff
##    <fct>                                <dbl>       <dbl>    <dbl>
##  1 00e0b159cf5b9abcc73b92506d8b1c38      3.24        3.47 -0.229  
##  2 021a49cde484f8fa18439f026ec99459      3.22        3.21  0.00953
##  3 02810ff2a65eae2b3e54ac57d906309d      3.46        3.36  0.0962 
##  4 037c50e80288a89b13f4c77e0b825789      3.55        3.55 -0.00229
##  5 054635a48143f6d4dd711cbb00b9f6fd      3.22        3.18  0.0412 
##  6 066f8885734d3b91f905df8c23195a27      3.39        3.38  0.0124 
##  7 086805c265966ff2a53482f3b6c1328c      3.37        3.42 -0.0544 
##  8 0912f84f2fb81492f8e7a4c5c02d33a9      3.18        3.21 -0.0301 
##  9 09b1c9e98227331746533f60cc9b2c2d      3.33        3.43 -0.0978 
## 10 0a14b7b4f101746c9cd29fbaa746ba5e      3.48        3.45  0.0308 
## # ℹ 130 more rows
…
